Project_Week_12
…
#Renaming columns

# Rename column 
names(advertising)[names(advertising) == "Daily Time Spent on Site"] <- "Daily_spent_site"
names(advertising)[names(advertising) == "Daily Internet Usage"] <- "Daily_internet_use"
names(advertising)[names(advertising) == "Clicked on Ad"] <- "Clicked_ad"
names(advertising)[names(advertising) == "Area Income"] <- "Area_income"
advertising

## # A tibble: 1,000 x 10
##    Daily_spent_site   Age Area_income Daily_internet_use `Ad Topic Line`   City 
##               <dbl> <dbl>       <dbl>              <dbl> <chr>             <chr>
##  1             69.0    35      61834.               256. Cloned 5thgenera~ Wrig~
##  2             80.2    31      68442.               194. Monitored nation~ West~
##  3             69.5    26      59786.               236. Organic bottom-l~ Davi~
##  4             74.2    29      54806.               246. Triple-buffered ~ West~
##  5             68.4    35      73890.               226. Robust logistica~ Sout~
##  6             60.0    23      59762.               227. Sharable client-~ Jami~
##  7             88.9    33      53853.               208. Enhanced dedicat~ Bran~
##  8             66      48      24593.               132. Reactive local c~ Port~
##  9             74.5    30      68862                222. Configurable coh~ West~
## 10             69.9    20      55642.               184. Mandatory homoge~ Rami~
## # ... with 990 more rows, and 4 more variables: Male <dbl>, Country <chr>,
## #   Timestamp <dttm>, Clicked_ad <dbl>
…
